…
**Now follows a workthrough of the slides.**

Note that this code will not work without the below being run first (if
you have cleared down the environment):

``` r
library(tidyverse)
library(readr)
beds_data <- read_csv("beds_data.csv", col_types = cols(date = col_date(format = "%d/%m/%Y")), 
                      skip = 3)
beds_data
```

    ## # A tibble: 4,558 x 5
    ##    date       org_code org_name                              beds_av occ_av
    ##    <date>     <chr>    <chr>                                   <dbl>  <dbl>
    ##  1 2013-09-01 R1A      Worcestershire Health And Care            129    117
    ##  2 2013-09-01 R1C      Solent                                    105     82
    ##  3 2013-09-01 R1E      Staffordshire And Stoke On Trent Par~      NA     NA
    ##  4 2013-09-01 R1F      Isle Of Wight                              54     42
    ##  5 2013-09-01 R1H      Barts Health                               NA     NA
    ##  6 2013-09-01 R1J      Gloucestershire Care Services              NA     NA
    ##  7 2013-09-01 RA2      Royal Surrey County Hospital               NA     NA
    ##  8 2013-09-01 RA3      Weston Area Health                         NA     NA
    ##  9 2013-09-01 RA4      Yeovil District Hospital                   NA     NA
    ## 10 2013-09-01 RA7      University Hospitals Bristol               NA     NA
    ## # ... with 4,548 more rows

Revisiting the dplyr slides we produced the following code:

``` r
beds_data %>%
  group_by(date) %>%
  summarise(
    mean_beds = mean(beds_av, na.rm = T)
  ) %>%
  ungroup()
```

    ## # A tibble: 21 x 2
    ##    date       mean_beds
    ##    <date>         <dbl>
    ##  1 2013-09-01      324.
    ##  2 2013-12-01      322.
    ##  3 2014-03-01      319.
    ##  4 2014-06-01      320.
    ##  5 2014-09-01      318.
    ##  6 2014-12-01      315.
    ##  7 2015-03-01      314.
    ##  8 2015-06-01      294.
    ##  9 2015-09-01      296.
    ## 10 2015-12-01      296.
    ## # ... with 11 more rows
…
If we now call `beds_ts` we get the output expected:

``` r
beds_ts
```

    ## # A tibble: 21 x 2
    ##    date       mean_beds
    ##    <date>         <dbl>
    ##  1 2013-09-01      324.
    ##  2 2013-12-01      322.
    ##  3 2014-03-01      319.
    ##  4 2014-06-01      320.
    ##  5 2014-09-01      318.
    ##  6 2014-12-01      315.
    ##  7 2015-03-01      314.
    ##  8 2015-06-01      294.
    ##  9 2015-09-01      296.
    ## 10 2015-12-01      296.
    ## # ... with 11 more rows
…
