…
The object capacity\_ae is a dataframe (or a ‘tibble’ in tidyverse)

View the dataset/tibble.  
Fields include: the site, number of attendances, staff\_increase (did \#
staff increase between 2017 and 2018?), dcubicles & dwait (difference in
average from 2017 to 2018).

Load the dataset and take a look at the top 10 rows:

``` r
capacity_ae
```

    ## # A tibble: 68 x 5
    ##     site attendance2018 staff_increase dcubicles   dwait
    ##    <dbl>          <dbl> <lgl>              <dbl>   <dbl>
    ##  1     1          81600 TRUE                  50 -59.9  
    ##  2     2         114600 FALSE                 49 -32.8  
    ##  3     3          83400 FALSE                 47   3.39 
    ##  4     4          80600 FALSE                 47 -22.1  
    ##  5     5         106000 FALSE                 45  -2.42 
    ##  6     6          96600 FALSE                 42 -40.5  
    ##  7     7         112200 TRUE                  37   3.54 
    ##  8     8          87600 FALSE                 37  22.7  
    ##  9     9          88000 FALSE                 31  -0.709
    ## 10    10         138200 FALSE                 29   4.45 
    ## # ... with 58 more rows
…
