…
But, we also note that the data column is currently set as a character.
This needs to be changed to date (%d/%m/%y):

``` r
library(readr)
beds_data <- read_csv("beds_data.csv", col_types = cols(date = col_date(format = "%d/%m/%Y")), 
                      skip = 3)
View(beds_data)
beds_data
```

    ## # A tibble: 4,558 x 5
    ##    date       org_code org_name                              beds_av occ_av
    ##    <date>     <chr>    <chr>                                   <dbl>  <dbl>
    ##  1 2013-09-01 R1A      Worcestershire Health And Care            129    117
    ##  2 2013-09-01 R1C      Solent                                    105     82
    ##  3 2013-09-01 R1E      Staffordshire And Stoke On Trent Par~      NA     NA
    ##  4 2013-09-01 R1F      Isle Of Wight                              54     42
    ##  5 2013-09-01 R1H      Barts Health                               NA     NA
    ##  6 2013-09-01 R1J      Gloucestershire Care Services              NA     NA
    ##  7 2013-09-01 RA2      Royal Surrey County Hospital               NA     NA
    ##  8 2013-09-01 RA3      Weston Area Health                         NA     NA
    ##  9 2013-09-01 RA4      Yeovil District Hospital                   NA     NA
    ## 10 2013-09-01 RA7      University Hospitals Bristol               NA     NA
    ## # ... with 4,548 more rows
…
The below questions will help to work through the verbs used in dplyr.

### Q1: Which organisation provided the highest number of MH beds?

1.  **arrange** - reorder rows based on a selected variable

<!-- end list -->

``` r
beds_data %>%
  arrange(desc(beds_av)) #defaults to asc like SQL
```

    ## # A tibble: 4,558 x 5
    ##    date       org_code org_name                   beds_av occ_av
    ##    <date>     <chr>    <chr>                        <dbl>  <dbl>
    ##  1 2013-09-01 RHA      Nottinghamshire Healthcare    1050    929
    ##  2 2013-12-01 RHA      Nottinghamshire Healthcare    1002    888
    ##  3 2014-03-01 RHA      Nottinghamshire Healthcare     993    875
    ##  4 2014-06-01 RHA      Nottinghamshire Healthcare     991    857
    ##  5 2015-03-01 RHA      Nottinghamshire Healthcare     977    821
    ##  6 2014-09-01 RHA      Nottinghamshire Healthcare     971    844
    ##  7 2014-12-01 RHA      Nottinghamshire Healthcare     939    829
    ##  8 2015-12-01 RWK      East London                    925    757
    ##  9 2015-09-01 RWK      East London                    919    762
    ## 10 2016-09-01 RWK      East London                    916    770
    ## # ... with 4,548 more rows
### Q2: Which organisations provided the highest number of MH beds in Sept. 2018?

We’ll use **arrange** as in Q1, but also **filter** in order to select
the appropriate data that we need to answer the question.  
Firstly we will take the dataset (beds\_data), then we will filter this
to only examine where the date is Sept. 2018, and finally arrange it by
the availability of beds (mean):

``` r
beds_data %>%
  filter(date == "2018-09-01") %>%
  arrange(desc(beds_av))
```

    ## # A tibble: 207 x 5
    ##    date       org_code org_name                              beds_av occ_av
    ##    <date>     <chr>    <chr>                                   <dbl>  <dbl>
    ##  1 2018-09-01 RWK      East London                               883    753
    ##  2 2018-09-01 RHA      Nottinghamshire Healthcare                831    759
    ##  3 2018-09-01 RV3      Central And North West London             752    679
    ##  4 2018-09-01 RKL      West London                               747    644
    ##  5 2018-09-01 RX3      Tees, Esk And Wear Valleys                722    644
    ##  6 2018-09-01 RXT      Birmingham And Solihull Mental Health     679    658
    ##  7 2018-09-01 RW4      Mersey Care                               603    552
    ##  8 2018-09-01 RX4      Northumberland, Tyne And Wear             594    503
    ##  9 2018-09-01 R1L      Essex Partnership University              585    547
    ## 10 2018-09-01 RX2      Sussex Partnership                        565    547
    ## # ... with 197 more rows
…
``` r
beds_data %>%
  mutate(perc_occ = occ_av / beds_av) %>% # Create new variable perc_occ
  filter(date == "2018-09-01") %>%
    arrange(desc(perc_occ)) # Sort by newly created variable
```

    ## # A tibble: 207 x 6
    ##    date       org_code org_name                     beds_av occ_av perc_occ
    ##    <date>     <chr>    <chr>                          <dbl>  <dbl>    <dbl>
    ##  1 2018-09-01 RAL      Royal Free London                  2      2    1    
    ##  2 2018-09-01 RPG      Oxleas                           384    384    1    
    ##  3 2018-09-01 RRP      Barnet, Enfield And Haringe~     476    468    0.983
    ##  4 2018-09-01 RWV      Devon Partnership                281    276    0.982
    ##  5 2018-09-01 RXT      Birmingham And Solihull Men~     679    658    0.969
    ##  6 2018-09-01 RX2      Sussex Partnership               565    547    0.968
    ##  7 2018-09-01 RP1      Northamptonshire Healthcare      190    183    0.963
    ##  8 2018-09-01 RJ8      Cornwall Partnership             128    123    0.961
    ##  9 2018-09-01 RQ3      Birmingham Women's And Chil~      24     23    0.958
    ## 10 2018-09-01 TAF      Camden And Islington             187    178    0.952
    ## # ... with 197 more rows
…
This will result in an output where a value (mean\_beds) is shown for
each date (a row for each unique value of date).

The slides detail that it is best to `ungroup()` after you have
performed the required operation; I don’t know why but I have little
reason to not believe this…

``` r
beds_data %>%
  group_by(date) %>%
  summarise(mean_beds = mean(beds_av, na.rm = T)) %>%
  ungroup() # Safest to ungroup after use
```

    ## # A tibble: 21 x 2
    ##    date       mean_beds
    ##    <date>         <dbl>
    ##  1 2013-09-01      324.
    ##  2 2013-12-01      322.
    ##  3 2014-03-01      319.
    ##  4 2014-06-01      320.
    ##  5 2014-09-01      318.
    ##  6 2014-12-01      315.
    ##  7 2015-03-01      314.
    ##  8 2015-06-01      294.
    ##  9 2015-09-01      296.
    ## 10 2015-12-01      296.
    ## # ... with 11 more rows
…
``` r
beds_data %>%
  mutate(bed_occ = occ_av / beds_av) %>%
  group_by(org_name) %>%
  summarise(mean_bed_occ = mean(bed_occ, na.rm = T)) %>%
  arrange(desc(mean_bed_occ))  %>%
  ungroup()
```

    ## # A tibble: 255 x 2
    ##    org_name                                       mean_bed_occ
    ##    <chr>                                                 <dbl>
    ##  1 Barnet, Enfield And Haringey Mental Health            0.982
    ##  2 Bradford District Care Trust                          0.972
    ##  3 Camden And Islington                                  0.953
    ##  4 Hertfordshire Partnership University                  0.953
    ##  5 North Essex Partnership University                    0.945
    ##  6 Devon Partnership                                     0.945
    ##  7 Sussex Partnership                                    0.942
    ##  8 Essex Partnership University                          0.942
    ##  9 Manchester Mental Health And Social Care Trust        0.940
    ## 10 Birmingham And Solihull Mental Health                 0.935
    ## # ... with 245 more rows
…
This can be pushed into the summarise syntax (along with the mean).

``` r
beds_data %>%
  mutate(bed_occ = occ_av / beds_av) %>%
  group_by(org_name) %>%
  summarise(mean_bed_occ = mean(bed_occ, na.rm = T),
            number = n()) %>%
  arrange(desc(mean_bed_occ)) %>%
  ungroup()
```

    ## # A tibble: 255 x 3
    ##    org_name                                       mean_bed_occ number
    ##    <chr>                                                 <dbl>  <int>
    ##  1 Barnet, Enfield And Haringey Mental Health            0.982     21
    ##  2 Bradford District Care Trust                          0.972      3
    ##  3 Camden And Islington                                  0.953     21
    ##  4 Hertfordshire Partnership University                  0.953      9
    ##  5 North Essex Partnership University                    0.945     15
    ##  6 Devon Partnership                                     0.945     21
    ##  7 Sussex Partnership                                    0.942     21
    ##  8 Essex Partnership University                          0.942      6
    ##  9 Manchester Mental Health And Social Care Trust        0.940     14
    ## 10 Birmingham And Solihull Mental Health                 0.935     21
    ## # ... with 245 more rows
…
### Select a subset of variables from existing dataset

This **select** verb ensures that we only **select** the data that we
are interested in - very much like SELECT in SQL.

For example, the below will return just the fields \[org\_code\] and
\[org\_name\]:

``` r
beds_data %>%
  select(org_code, org_name)
```

    ## # A tibble: 4,558 x 2
    ##    org_code org_name                                    
    ##    <chr>    <chr>                                       
    ##  1 R1A      Worcestershire Health And Care              
    ##  2 R1C      Solent                                      
    ##  3 R1E      Staffordshire And Stoke On Trent Partnership
    ##  4 R1F      Isle Of Wight                               
    ##  5 R1H      Barts Health                                
    ##  6 R1J      Gloucestershire Care Services               
    ##  7 RA2      Royal Surrey County Hospital                
    ##  8 RA3      Weston Area Health                          
    ##  9 RA4      Yeovil District Hospital                    
    ## 10 RA7      University Hospitals Bristol                
    ## # ... with 4,548 more rows

Similarly, we can return all of the fields *except* for \[org\_code\]
using the below:

``` r
# Select a subset of variables from existing dataset:
beds_data %>%
  select(-org_code) # To remove a column
```

    ## # A tibble: 4,558 x 4
    ##    date       org_name                                     beds_av occ_av
    ##    <date>     <chr>                                          <dbl>  <dbl>
    ##  1 2013-09-01 Worcestershire Health And Care                   129    117
    ##  2 2013-09-01 Solent                                           105     82
    ##  3 2013-09-01 Staffordshire And Stoke On Trent Partnership      NA     NA
    ##  4 2013-09-01 Isle Of Wight                                     54     42
    ##  5 2013-09-01 Barts Health                                      NA     NA
    ##  6 2013-09-01 Gloucestershire Care Services                     NA     NA
    ##  7 2013-09-01 Royal Surrey County Hospital                      NA     NA
    ##  8 2013-09-01 Weston Area Health                                NA     NA
    ##  9 2013-09-01 Yeovil District Hospital                          NA     NA
    ## 10 2013-09-01 University Hospitals Bristol                      NA     NA
    ## # ... with 4,548 more rows

Or, just the first three columns (variables) from the dataset:

``` r
beds_data %>%
  select(1:3) # Columns 1 to 3
```

    ## # A tibble: 4,558 x 3
    ##    date       org_code org_name                                    
    ##    <date>     <chr>    <chr>                                       
    ##  1 2013-09-01 R1A      Worcestershire Health And Care              
    ##  2 2013-09-01 R1C      Solent                                      
    ##  3 2013-09-01 R1E      Staffordshire And Stoke On Trent Partnership
    ##  4 2013-09-01 R1F      Isle Of Wight                               
    ##  5 2013-09-01 R1H      Barts Health                                
    ##  6 2013-09-01 R1J      Gloucestershire Care Services               
    ##  7 2013-09-01 RA2      Royal Surrey County Hospital                
    ##  8 2013-09-01 RA3      Weston Area Health                          
    ##  9 2013-09-01 RA4      Yeovil District Hospital                    
    ## 10 2013-09-01 RA7      University Hospitals Bristol                
    ## # ... with 4,548 more rows

Or, we can return everything but put the \[org\_name\] at the start of
the data that is returned:

``` r
beds_data %>%
  select(org_name, everything()) # Put org_name at the start of the data frame
```

    ## # A tibble: 4,558 x 5
    ##    org_name                              date       org_code beds_av occ_av
    ##    <chr>                                 <date>     <chr>      <dbl>  <dbl>
    ##  1 Worcestershire Health And Care        2013-09-01 R1A          129    117
    ##  2 Solent                                2013-09-01 R1C          105     82
    ##  3 Staffordshire And Stoke On Trent Par~ 2013-09-01 R1E           NA     NA
    ##  4 Isle Of Wight                         2013-09-01 R1F           54     42
    ##  5 Barts Health                          2013-09-01 R1H           NA     NA
    ##  6 Gloucestershire Care Services         2013-09-01 R1J           NA     NA
    ##  7 Royal Surrey County Hospital          2013-09-01 RA2           NA     NA
    ##  8 Weston Area Health                    2013-09-01 RA3           NA     NA
    ##  9 Yeovil District Hospital              2013-09-01 RA4           NA     NA
    ## 10 University Hospitals Bristol          2013-09-01 RA7           NA     NA
    ## # ... with 4,548 more rows
…
