…
Then we can do the following, whilst ensuring that we:  
1: Keep the structure of the `tb_cases` data frame;  
2: Match to rows in `tb_popul`;  
3: Based on “country”

``` r
tb_cases %>%
  left_join(tb_popul, by = "country")
```

    ## # A tibble: 64 x 5
    ##    country     year.x  cases year.y        pop
    ##    <chr>        <dbl>  <dbl>  <dbl>      <dbl>
    ##  1 Afghanistan   1999    745   1999   19987071
    ##  2 Afghanistan   1999    745   2000   20595360
    ##  3 Afghanistan   1999    745   2001   21347782
    ##  4 Afghanistan   1999    745   2002   22202806
    ##  5 Brazil        1999  37737   1999  172006362
    ##  6 Brazil        1999  37737   2000  174504898
    ##  7 Brazil        1999  37737   2001  176968205
    ##  8 Brazil        1999  37737   2002  179393768
    ##  9 China         1999 212258   1999 1272915272
    ## 10 China         1999 212258   2000 1280428583
    ## # ... with 54 more rows
…
